module gitlab.com/Varvara_R/talkilet-be

go 1.20

require (
	github.com/google/uuid v1.6.0
	github.com/joho/godotenv v1.5.1
	github.com/julienschmidt/httprouter v1.3.0
	github.com/prometheus/client_golang v1.19.0
	github.com/sirupsen/logrus v1.9.3
	gorm.io/driver/postgres v1.5.9
	gorm.io/gorm v1.25.11
)

require (
	github.com/beorn7/perks v1.0.1 // indirect
	github.com/cespare/xxhash/v2 v2.2.0 // indirect
	github.com/jackc/pgpassfile v1.0.0 // indirect
	github.com/jackc/pgservicefile v0.0.0-20221227161230-091c0ba34f0a // indirect
	github.com/jackc/pgx/v5 v5.5.5 // indirect
	github.com/jackc/puddle/v2 v2.2.1 // indirect
	github.com/jinzhu/inflection v1.0.0 // indirect
	github.com/jinzhu/now v1.1.5 // indirect
	github.com/prometheus/client_model v0.5.0 // indirect
	github.com/prometheus/common v0.48.0 // indirect
	github.com/prometheus/procfs v0.12.0 // indirect
	golang.org/x/crypto v0.17.0 // indirect
	golang.org/x/sync v0.8.0 // indirect
	golang.org/x/sys v0.22.0 // indirect
	golang.org/x/text v0.18.0 // indirect
	google.golang.org/protobuf v1.32.0 // indirect
)
